{
  "images" : [
    {
      "idiom" : "universal",
      "filename" : "72a4d4b324c0c71cc40046255a45fbf8.png",
      "scale" : "1x"
    },
    {
      "idiom" : "universal",
      "scale" : "2x"
    },
    {
      "idiom" : "universal",
      "scale" : "3x"
    }
  ],
  "info" : {
    "version" : 1,
    "author" : "xcode"
  }
}